<svg width="42" height="42" viewBox="0 0 42 42" fill="none" xmlns="http://www.w3.org/2000/svg">
<path opacity="0.9" d="M0 21C0 15.4305 2.21249 10.089 6.15076 6.15076C10.089 2.21249 15.4305 0 21 0C23.7578 0 26.4885 0.543181 29.0364 1.59853C31.5842 2.65388 33.8992 4.20073 35.8492 6.15076C37.7993 8.10079 39.3461 10.4158 40.4015 12.9636C41.4568 15.5115 42 18.2422 42 21C42 26.5695 39.7875 31.911 35.8492 35.8492C31.911 39.7875 26.5695 42 21 42C18.2422 42 15.5115 41.4568 12.9636 40.4015C10.4158 39.3461 8.10079 37.7993 6.15076 35.8492C2.21249 31.911 0 26.5695 0 21ZM16.8 31.5L27.3 21L16.8 10.5V31.5Z" fill="#6C748B"/>
</svg>
